; Engine configuration file.
; It's best edited using the editor UI and not directly,
; since the parameters that go here are not all obvious.
;
; Format:
;   [section] ; section goes between []
;   param=value ; assign values to parameters

config_version=4

_global_script_classes=[  ]
_global_script_class_icons={

}

[application]

config/name="Bilal Çay Evi"
run/main_scene="res://scenes/Main.tscn"
config/icon="res://icon.png"

[display]

window/size/width=720
window/size/height=1280
window/size/borderless=true
window/handheld/orientation="portrait"
window/stretch/mode="2d"
window/stretch/aspect="expand"

[rendering]

environment/default_environment="res://default_env.tres"
